explorations 2
…
sample_depth <- long_aml %>%
  group_by(cohort, sample_id) %>%
  summarise(sample_tmm_cpm = sum(tmm_cpm),
            sample_log2_tmm_cpm = sum(log2_tmm_cpm),
            .groups = "drop")

sample_depth %>%
  arrange(sample_log2_tmm_cpm)

# A tibble: 357 × 4
   cohort sample_id sample_tmm_cpm sample_log2_tmm_cpm
   <chr>  <chr>              <dbl>               <dbl>
 1 BEAT   15-00300         277813.              19604.
 2 BEAT   14-00193         832236.              59126.
 3 BEAT   14-00464         949033.              59809.
 4 BEAT   13-00365         891075.              60192.
 5 BEAT   14-00434         976803.              60275.
 6 BEAT   16-00705        1010877.              60453.
 7 BEAT   14-00496        1131358.              60521.
 8 BEAT   16-00102         808733.              60609.
 9 BEAT   13-00454        1059224.              60623.
10 BEAT   13-00496        1001377.              60796.
# ℹ 347 more rows

sample_depth %>%
  arrange(desc(sample_log2_tmm_cpm))

# A tibble: 357 × 4
   cohort sample_id    sample_tmm_cpm sample_log2_tmm_cpm
   <chr>  <chr>                 <dbl>               <dbl>
 1 TCGA   TCGA-AB-2952       1255883.              72888.
 2 TCGA   TCGA-AB-2938        926723.              71929.
 3 TCGA   TCGA-AB-2882        950768.              71812.
 4 TCGA   TCGA-AB-2995        887586.              71519.
 5 TCGA   TCGA-AB-2935        901400.              71196.
 6 TCGA   TCGA-AB-2857        890783.              70991.
 7 TCGA   TCGA-AB-2908       1168358.              70939.
 8 TCGA   TCGA-AB-2811       1774786.              70869.
 9 TCGA   TCGA-AB-2847        915553.              70770.
10 TCGA   TCGA-AB-2910       1128934.              70740.
# ℹ 347 more rows
…
