data_overview
…
expr_beat_wes <- expr_beat %>%
  filter(labId %in% intersect(unique(wes$ID), labId))

TCGA

expr_tcga <- read_tsv("../raw/200221_TCGA-LAML_CPM-TMM.tsv.xz",
                      show_col_types = FALSE)

expr_tcga %>%
  group_by(hugo) %>%
  filter(n() > 1) %>%
  relocate(hugo) %>%
  arrange(hugo)

# A tibble: 8,208 × 153
# Groups:   hugo [3]
   hugo    ensembl_gene_id `TCGA-AB-2876` `TCGA-AB-2952` `TCGA-AB-2915`
   <chr>   <chr>                    <dbl>          <dbl>          <dbl>
 1 GOLGA8M ENSG00000188626          0.291         0.0685          0.116
 2 GOLGA8M ENSG00000261480          0             0               0    
 3 POLR2J4 ENSG00000214783          6.65          6.06            6.37 
 4 POLR2J4 ENSG00000272655          4.23          3.73            4.81 
 5 <NA>    ENSG00000036549        110.           69.6            71.5  
 6 <NA>    ENSG00000069712          6.03          4.93            5.74 
 7 <NA>    ENSG00000093100          0.204         0.445           0.463
 8 <NA>    ENSG00000108958          0.612         0.342           0.521
 9 <NA>    ENSG00000111788          6.62         24.8            12.3  
10 <NA>    ENSG00000116883         10.3          21.7             8.52 
# ℹ 8,198 more rows
# ℹ 148 more variables: `TCGA-AB-2929` <dbl>, `TCGA-AB-2938` <dbl>,
#   `TCGA-AB-2849` <dbl>, `TCGA-AB-2877` <dbl>, `TCGA-AB-2986` <dbl>,
#   `TCGA-AB-2971` <dbl>, `TCGA-AB-2955` <dbl>, `TCGA-AB-3007` <dbl>,
#   `TCGA-AB-2896` <dbl>, `TCGA-AB-2821` <dbl>, `TCGA-AB-2841` <dbl>,
#   `TCGA-AB-2899` <dbl>, `TCGA-AB-3001` <dbl>, `TCGA-AB-2924` <dbl>,
#   `TCGA-AB-2941` <dbl>, `TCGA-AB-2892` <dbl>, `TCGA-AB-2812` <dbl>, …
…
